module github.com/Shakhrik/inha/bus_tracking

go 1.17

require (
	github.com/gin-contrib/cors v1.3.1
	github.com/gin-gonic/gin v1.7.7
	github.com/jackc/pgx/v4 v4.14.1
	github.com/jmoiron/sqlx v1.3.4
	github.com/joho/godotenv v1.4.0
	github.com/spf13/cast v1.4.1
	github.com/swaggo/files v0.0.0-20210815190702-a29dd2bc99b2
	github.com/swaggo/gin-swagger v1.3.3
	github.com/swaggo/swag v1.8.1
	go.uber.org/zap v1.19.1
)

require (
	github.com/KyleBanks/depth v1.2.1 // indirect
	github.com/gin-contrib/sse v0.1.0 // indirect
	github.com/go-openapi/jsonpointer v0.19.5 // indirect
	github.com/go-openapi/jsonreference v0.20.0 // indirect
	github.com/go-openapi/spec v0.20.5 // indirect
	github.com/go-openapi/swag v0.21.1 // indirect
	github.com/go-playground/locales v0.13.0 // indirect
	github.com/go-playground/universal-translator v0.17.0 // indirect
	github.com/go-playground/validator/v10 v10.4.1 // indirect
	github.com/golang/protobuf v1.3.3 // indirect
	github.com/jackc/chunkreader/v2 v2.0.1 // indirect
	github.com/jackc/pgconn v1.10.1 // indirect
	github.com/jackc/pgio v1.0.0 // indirect
	github.com/jackc/pgpassfile v1.0.0 // indirect
	github.com/jackc/pgproto3/v2 v2.2.0 // indirect
	github.com/jackc/pgservicefile v0.0.0-20200714003250-2b9c44734f2b // indirect
	github.com/jackc/pgtype v1.9.1 // indirect
	github.com/josharian/intern v1.0.0 // indirect
	github.com/json-iterator/go v1.1.9 // indirect
	github.com/leodido/go-urn v1.2.0 // indirect
	github.com/mailru/easyjson v0.7.7 // indirect
	github.com/mattn/go-isatty v0.0.12 // indirect
	github.com/modern-go/concurrent v0.0.0-20180228061459-e0a39a4cb421 // indirect
	github.com/modern-go/reflect2 v0.0.0-20180701023420-4b7aa43c6742 // indirect
	github.com/ugorji/go/codec v1.1.7 // indirect
	go.uber.org/atomic v1.7.0 // indirect
	go.uber.org/multierr v1.6.0 // indirect
	golang.org/x/crypto v0.0.0-20210711020723-a769d52b0f97 // indirect
	golang.org/x/net v0.0.0-20220421235706-1d1ef9303861 // indirect
	golang.org/x/sys v0.0.0-20220422013727-9388b58f7150 // indirect
	golang.org/x/text v0.3.7 // indirect
	golang.org/x/tools v0.1.10 // indirect
	gopkg.in/yaml.v2 v2.4.0 // indirect
)
